<?xml version="1.0" encoding="utf-8"?>
<!-- Generator: Adobe Illustrator 19.0.0, SVG Export Plug-In . SVG Version: 6.00 Build 0)  -->
<svg version="1.1" id="Layer_1" xmlns="http://www.w3.org/2000/svg" xmlns:xlink="http://www.w3.org/1999/xlink" x="0px" y="0px"
	 width="300px" height="300px" viewBox="50 -50 300 300" style="enable-background:new 50 -50 300 300;" xml:space="preserve">
<g>
	<path d="M327.9,51.9c0-4.4-1.9-8.7-5.6-11.7c-6.4-5.2-15.9-4.2-21.1,2.2l-84.1,104c-4.6,4.4-10.7,6.8-17.1,6.8
		c-6.5,0-12.5-2.4-17.1-6.8l-84.1-104C93.5,36,84.1,35,77.6,40.2c-6.4,5.2-7.4,14.7-2.2,21.1l84.7,104.7c0.3,0.4,0.7,0.8,1.1,1.2
		c10.3,10.3,24.1,16,38.8,16c14.7,0,28.5-5.7,38.8-16c0.4-0.4,0.7-0.8,1.1-1.2l84.7-104.7C326.8,58.5,327.9,55.2,327.9,51.9z"/>
</g>
</svg>
