<?xml version="1.0" encoding="utf-8"?>
<!-- Generator: Adobe Illustrator 19.0.0, SVG Export Plug-In . SVG Version: 6.00 Build 0)  -->
<svg version="1.1" id="Layer_1" xmlns="http://www.w3.org/2000/svg" xmlns:xlink="http://www.w3.org/1999/xlink" x="0px" y="0px"
	 width="300px" height="300px" viewBox="50 -50 300 300" style="enable-background:new 50 -50 300 300;" xml:space="preserve">
<path d="M349.2-38.8c-19.1,22.7-51.9,29-68.4,30.7C258.3-25,230.3-35,200-35C125.4-35,65,25.4,65,100s60.4,135,135,135
	s135-60.4,135-135c0-23.3-5.9-45.3-16.3-64.4C352.2,5.5,349.2-38.8,349.2-38.8z"/>
</svg>
