<?xml version="1.0" encoding="utf-8"?>
<!-- Generator: Adobe Illustrator 19.0.0, SVG Export Plug-In . SVG Version: 6.00 Build 0)  -->
<svg version="1.1" id="Layer_1" xmlns="http://www.w3.org/2000/svg" xmlns:xlink="http://www.w3.org/1999/xlink" x="0px" y="0px"
	 width="300px" height="300px" viewBox="50 -50 300 300" style="enable-background:new 50 -50 300 300;" xml:space="preserve">
<path d="M50.8,238.8c19.1-22.7,51.9-29,68.4-30.7C141.7,225,169.7,235,200,235c74.6,0,135-60.4,135-135S274.6-35,200-35
	S65,25.4,65,100c0,23.3,5.9,45.3,16.3,64.4C47.8,194.5,50.8,238.8,50.8,238.8z"/>
</svg>
