<?xml version="1.0" encoding="utf-8"?>
<!-- Generator: Adobe Illustrator 19.0.0, SVG Export Plug-In . SVG Version: 6.00 Build 0)  -->
<svg version="1.1" id="Layer_1" xmlns="http://www.w3.org/2000/svg" xmlns:xlink="http://www.w3.org/1999/xlink" x="0px" y="0px"
	 width="300px" height="300px" viewBox="-349 351 300 300" style="enable-background:new -349 351 300 300;" xml:space="preserve">
<g>
	<path d="M-188.3,470.1c0.2-0.7,0.4-1.5,0.4-2.3c0-3.2-2.2-5.9-5.1-6.7c-0.6-0.2-1.2-0.2-1.8-0.2c-3.8,0-6.9,3.1-6.9,6.9
		c0,0.3,0,0.5,0,0.7c0.1,0.5,0.2,1,0.3,1.5c0.9,2.7,3.5,4.6,6.5,4.6C-191.8,474.7-189.2,472.8-188.3,470.1z"/>
	<path d="M-197.8,365.7c-24-0.2-46.6,5.9-66.2,16.7c-29.8-33.5-73.7-30.5-73.7-30.5c22.8,19.2,28.8,52.3,30.3,68.3
		c-16.6,22.3-26.6,49.8-26.9,79.7c-0.7,74.7,59.4,135.8,134.1,136.5c74.7,0.7,135.8-59.4,136.5-134.1
		C-63,427.4-123,366.3-197.8,365.7z M-212.6,552.8h15.8l0,0h2.6v1.5v21.1h-58.2h0h-2.3v-22.6h16.8v-40h0v-0.6v-24.4l0,0v-25.1v-11.7
		v-0.3h-15.2h-1.6V428h28.1h29.3h2c8.3,0,16,1.3,23,3.6l0,0c6.7,2.3,12.7,5.7,17.6,10c3.1,2.7,5.9,5.9,8.1,9.4
		c1.2,1.9,2.3,3.9,3.2,6c1.8,4,2.9,8.4,3.5,13.1c0.2,2,0.3,4,0.3,6.1c0,0.9,0,1.8-0.1,2.6h0c-0.2,4.4-0.8,8.6-1.8,12.4
		c-2.1,8.1-6,14.8-11.4,20.2c-8.3,1.1-15-1.7-19.5-4.5c-3.9-2.5-6.1-5-6.4-5.4c-1.5-1.8-4.3-2.1-6.2-0.6c-1.9,1.5-2.1,4.3-0.6,6.2
		c0.2,0.2,2.5,2.8,6,5.5c0,0,0,0,0,0l0,0c3.6,2.6,8.8,5.6,15.1,7c-8.6,4.4-19.2,6.8-31.1,7.1l0,0c-0.9,0-1.9,0-2.9,0
		c-6.9,0-11.2,0-14.3-0.2L-212.6,552.8z M-135.9,557.8c-11.2,0.1-20.4-8.9-20.5-20.2c0-3.6,0.9-7,2.5-9.9c-5-4.5-4.6-11.1-4.6-11.1
		c2.9,3.4,7.9,4.3,10.3,4.6c3.3-2.5,7.5-4,12-4c11.2-0.1,20.4,8.9,20.5,20.2C-115.7,548.5-124.7,557.7-135.9,557.8z"/>
</g>
</svg>
