<?xml version="1.0" encoding="utf-8"?>
<!-- Generator: Adobe Illustrator 19.0.0, SVG Export Plug-In . SVG Version: 6.00 Build 0)  -->
<svg version="1.1" id="Layer_1" xmlns="http://www.w3.org/2000/svg" xmlns:xlink="http://www.w3.org/1999/xlink" x="0px" y="0px"
	 width="300px" height="300px" viewBox="50 -50 300 300" style="enable-background:new 50 -50 300 300;" xml:space="preserve">
<path d="M61.2-49.2c22.7,19.1,29,51.9,30.7,68.4C75,41.7,65,69.7,65,100c0,74.6,60.4,135,135,135s135-60.4,135-135S274.6-35,200-35
	c-23.3,0-45.3,5.9-64.4,16.3C105.5-52.2,61.2-49.2,61.2-49.2z"/>
</svg>
