<?xml version="1.0" encoding="utf-8"?>
<!-- Generator: Adobe Illustrator 19.0.0, SVG Export Plug-In . SVG Version: 6.00 Build 0)  -->
<svg version="1.1" id="Layer_1" xmlns="http://www.w3.org/2000/svg" xmlns:xlink="http://www.w3.org/1999/xlink" x="0px" y="0px"
	 width="300px" height="300px" viewBox="0 0 300 300" style="enable-background:new 0 0 300 300;" xml:space="preserve">
<g>
	<path d="M128.8,200.9c24.2-0.6,45.8-5.5,63.3-14.5c-12.8-2.8-23.4-9-30.7-14.2c-7.1-5.5-11.8-10.8-12.2-11.2
		c-3.1-3.9-2.6-9.6,1.2-12.6c3.9-3.1,9.6-2.4,12.6,1.2c0.6,0.8,5.1,5.9,13,11c9.2,5.7,22.8,11.4,39.7,9.2c11-11,18.9-24.6,23.2-41.1
		c2-7.7,3.3-16.3,3.7-25.2c0.2-1.6,0.2-3.5,0.2-5.3c0-4.3-0.2-8.3-0.6-12.4c-1.2-9.6-3.5-18.5-7.1-26.7c-1.8-4.3-4.1-8.3-6.5-12.2
		c-4.5-7.1-10.2-13.6-16.5-19.1c-10-8.8-22.2-15.7-35.8-20.4C162,2.6,146.3,0,129.4,0h-4.1H65.7H8.5v46.2h3.3h30.9v0.6v23.8v51.1
		v49.7v1.2V254H8.5v46h4.7h118.5v-42.9V254h-5.3H94.2l-0.4-53.5c6.3,0.4,15.1,0.4,29.1,0.4C125,200.9,127,200.9,128.8,200.9z
		 M117,85.5c-0.2-1-0.4-2-0.6-3.1c0-0.4,0-0.8,0-1.4c0-7.7,6.3-14,14-14c1.2,0,2.4,0,3.7,0.4c5.9,1.6,10.4,7.1,10.4,13.6
		c0,1.6-0.4,3.3-0.8,4.7c-1.8,5.5-7.1,9.4-13.4,9.2C124.2,94.8,118.9,91,117,85.5z"/>
	<path id="XMLID_1_" d="M249.7,181.5c-9.2,0-17.7,3.1-24.4,8.1c-4.9-0.6-15.1-2.4-21-9.4c0,0-0.8,13.4,9.4,22.6
		c-3.3,5.9-5.1,12.8-5.1,20.1c0.2,23,18.9,41.3,41.7,41.1c22.8-0.2,41.1-18.9,41.1-41.5C291.2,199.7,272.5,181.3,249.7,181.5z"/>
</g>
</svg>
