<?xml version="1.0" encoding="utf-8"?>
<!-- Generator: Adobe Illustrator 19.0.0, SVG Export Plug-In . SVG Version: 6.00 Build 0)  -->
<svg version="1.1" id="Layer_1" xmlns="http://www.w3.org/2000/svg" xmlns:xlink="http://www.w3.org/1999/xlink" x="0px" y="0px"
	 width="300px" height="300px" viewBox="-349 351 300 300" style="enable-background:new -349 351 300 300;" xml:space="preserve">
<path d="M-193.4,434.2c16,0,29.1,4.9,39.4,14.8s15.4,21.5,15.4,34.8c0,17.1-4.3,31.3-13,42.6c-8.7,11.3-19.9,17-33.8,17
	c-4.5,0-8.8-1.1-12.8-3.2c-4-2.1-6.8-4.7-8.4-7.6c-0.3-0.3-0.5,0-0.6,0.8c-0.1,0.8-0.3,2.1-0.6,3.8s-0.7,3.8-1.2,6.2
	c-0.5,2.4-1.3,5.3-2.2,8.6s-2.1,6.7-3.6,10s-3.3,7-5.6,11c-2.3,4-4.9,7.9-7.8,11.6c-0.5,0.5-1,0.7-1.4,0.6s-0.6-0.5-0.6-1
	c-2.4-10.1-2.3-21.2,0.4-33.2l10.8-46.8c-1.9-4-2.8-8.7-2.8-14c0-6.4,1.7-11.7,5-16c3.3-4.3,7.3-6.4,11.8-6.4
	c7.7,0,11.6,4.4,11.6,13.2c0,3.2-1.1,8.7-3.4,16.4c-2.3,7.7-3.7,12.5-4.2,14.4c-1.1,4.5-0.2,8.4,2.6,11.6c2.8,3.2,6.5,4.8,11,4.8
	c8,0,14.6-4.5,19.8-13.4c5.2-8.9,7.8-19.8,7.8-32.6c0-9.6-3.2-17.5-9.6-23.8c-6.4-6.3-15.2-9.4-26.4-9.4c-12.8,0-23.1,4.1-31,12.2
	s-11.8,17.9-11.8,29.4c0,6.7,2,12.3,6,16.8c1.1,1.3,1.5,2.9,1.2,4.8l-2,7.2c-0.5,2.1-1.9,2.8-4,2c-12-4.8-18-15.9-18-33.2
	c0-13.6,5.5-26,16.6-37.2C-227.7,439.8-212.6,434.2-193.4,434.2z M-199,384.2c-32.3,0-59.8,11.4-82.6,34.2s-34.2,50.3-34.2,82.6
	s11.4,59.8,34.2,82.6c22.8,22.8,50.3,34.2,82.6,34.2s59.8-11.4,82.6-34.2c22.8-22.8,34.2-50.3,34.2-82.6s-11.4-59.8-34.2-82.6
	S-166.7,384.2-199,384.2z M-199,651c-41.3,0-76.7-14.7-106-44c-29.3-29.3-44-64.7-44-106s14.7-76.7,44-106c29.3-29.3,64.7-44,106-44
	s76.7,14.7,106,44s44,64.7,44,106s-14.7,76.7-44,106S-157.7,651-199,651z"/>
</svg>
