<?xml version="1.0" encoding="utf-8"?>
<!-- Generator: Adobe Illustrator 19.0.0, SVG Export Plug-In . SVG Version: 6.00 Build 0)  -->
<svg version="1.1" id="Layer_1" xmlns="http://www.w3.org/2000/svg" xmlns:xlink="http://www.w3.org/1999/xlink" x="0px" y="0px"
	 width="300px" height="300px" viewBox="-349 351 300 300" style="enable-background:new -349 351 300 300;" xml:space="preserve">
<path d="M-215.8,481.4c0-13.1,4.1-24.2,12.4-33.4c8.3-9.2,18.7-13.8,31.2-13.8h23.2v33.6h-23.2c-2.7,0-5,1-7,3s-3,4.3-3,7V501h33.2
	v33.2h-33.2v82.4c24.8-3.2,46.7-14.3,65.6-33.2c22.9-22.9,34.4-50.4,34.4-82.4c0-32.5-11.5-60.1-34.4-82.8
	c-22.9-22.7-50.4-34-82.4-34c-32.5,0-60.1,11.3-82.8,34c-22.7,22.7-34,50.3-34,82.8c0,32,11.3,59.5,34,82.4
	c18.9,18.9,40.9,30,66,33.2v-82.4H-249V501h33.2V481.4z M-93,394.6c29.3,29.3,44,64.8,44,106.4c0,41.3-14.7,76.7-44,106
	c-29.3,29.3-64.7,44-106,44c-41.6,0-77.1-14.7-106.4-44c-29.1-29.1-43.6-64.4-43.6-106c0-41.9,14.5-77.3,43.6-106.4
	c28.8-29.1,64.3-43.6,106.4-43.6C-157.4,351-122.1,365.5-93,394.6z"/>
</svg>
