<?xml version="1.0" encoding="utf-8"?>
<!-- Generator: Adobe Illustrator 19.0.0, SVG Export Plug-In . SVG Version: 6.00 Build 0)  -->
<svg version="1.1" id="Layer_1" xmlns="http://www.w3.org/2000/svg" xmlns:xlink="http://www.w3.org/1999/xlink" x="0px" y="0px"
	 width="300px" height="300px" viewBox="0 0 300 300" style="enable-background:new 0 0 300 300;" xml:space="preserve">
<path d="M150,131.1c-25,0-46.8,11.7-65.5,35.1s-28.1,51.3-28.1,83.7c0,9.4,3.4,17.6,10.2,24.6c6.8,7,15.8,12.4,26.9,16.1
	s23.3,6.4,36.6,8.2c13.3,1.8,26.5,1.8,39.8,0c13.3-1.8,25.5-4.5,36.6-8.2c11.1-3.7,20.1-9.1,26.9-16.1c6.8-7,10.2-15.2,10.2-24.6
	c0-32.4-9.4-60.3-28.1-83.7C196.8,142.8,175,131.1,150,131.1z M206.2,56.2c0-15.2-5.6-28.4-16.7-39.5C178.4,5.6,165.2,0,150,0
	s-28.4,5.6-39.5,16.7C99.4,27.8,93.8,41,93.8,56.2c0,15.2,5.6,28.4,16.7,39.5c11.1,11.1,24.3,16.7,39.5,16.7s28.4-5.6,39.5-16.7
	C200.6,84.5,206.2,71.4,206.2,56.2z"/>
</svg>
