<?xml version="1.0" encoding="utf-8"?>
<!-- Generator: Adobe Illustrator 19.0.0, SVG Export Plug-In . SVG Version: 6.00 Build 0)  -->
<svg version="1.1" id="Layer_1" xmlns="http://www.w3.org/2000/svg" xmlns:xlink="http://www.w3.org/1999/xlink" x="0px" y="0px"
	 width="252px" height="14px" viewBox="0 0 252 14" style="enable-background:new 0 0 252 14;" xml:space="preserve">
<style type="text/css">
	.st0{fill:#8D847A;}
	.st1{fill:#E46852;}
	.st2{fill:#F9BE00;}
	.st3{fill:#6DABE4;}
	.st4{fill:#FB7598;}
	.st5{fill:#BD83CA;}
	.st6{fill:#95D600;}
	.st7{fill:#FA8D29;}
	.st8{fill:#A4E8DA;}
</style>
<g>
	<path id="XMLID_9_" class="st0" d="M224,0c0,7.7,6.3,14,14,14c7.7,0,14-6.3,14-14"/>
	<path id="XMLID_8_" class="st1" d="M0,0c0,7.7,6.3,14,14,14c7.7,0,14-6.3,14-14"/>
	<path id="XMLID_7_" class="st2" d="M28,0c0,7.7,6.3,14,14,14c7.7,0,14-6.3,14-14"/>
	<path id="XMLID_6_" class="st3" d="M56,0c0,7.7,6.3,14,14,14c7.7,0,14-6.3,14-14"/>
	<path id="XMLID_5_" class="st4" d="M84,0c0,7.7,6.3,14,14,14c7.7,0,14-6.3,14-14"/>
	<path id="XMLID_4_" class="st5" d="M196,0c0,7.7,6.3,14,14,14c7.7,0,14-6.3,14-14"/>
	<path id="XMLID_3_" class="st6" d="M112,0c0,7.7,6.3,14,14,14c7.7,0,14-6.3,14-14"/>
	<path id="XMLID_2_" class="st7" d="M140,0c0,7.7,6.3,14,14,14c7.7,0,14-6.3,14-14"/>
	<path id="XMLID_1_" class="st8" d="M168,0c0,7.7,6.3,14,14,14c7.7,0,14-6.3,14-14"/>
</g>
</svg>
