<?xml version="1.0" encoding="utf-8"?>
<!-- Generator: Adobe Illustrator 19.0.0, SVG Export Plug-In . SVG Version: 6.00 Build 0)  -->
<svg version="1.1" id="Layer_1" xmlns="http://www.w3.org/2000/svg" xmlns:xlink="http://www.w3.org/1999/xlink" x="0px" y="0px"
	 width="229px" height="92px" viewBox="0 0 229 92" style="enable-background:new 0 0 229 92;" xml:space="preserve">
<style type="text/css">
	.st0{fill:#8AE2D1;}
	.st1{fill:#8D847A;}
	.st2{fill:#E46953;}
	.st3{fill:#F9BE00;}
	.st4{fill:#6DABE4;}
	.st5{fill:#FB7598;}
	.st6{fill:#95D600;}
	.st7{fill:#FA8D29;}
	.st8{fill:#BD83CA;}
</style>
<g>
	<polygon id="XMLID_37_" class="st0" points="92.7,73.6 90.8,73.6 90.8,70.4 99.1,70.4 99.1,73.6 96.9,73.6 101.5,85.2 106,73.6 
		103.7,73.6 103.7,70.4 112,70.4 112,73.6 110.1,73.6 102.5,91.7 100.4,91.7 	"/>
	<g>
		<path class="st0" d="M112.2,88.6h2.2v-8.2h-2.2v-3h5.6v11.2h2.1v2.9h-7.7V88.6z M113.4,73c0-1.3,1.1-2.3,2.4-2.3
			c1.3,0,2.3,1,2.3,2.3c0,1.3-1.1,2.3-2.4,2.3C114.5,75.3,113.4,74.2,113.4,73"/>
		<path id="XMLID_34_" class="st0" d="M120.2,84.3c0-3.7,3-7.2,7.1-7.2c3.9,0,6.4,2.5,6.4,4.7c0,1.5-1,2.4-2.2,2.4
			c-1.2,0-2.1-1-2.1-2.1c0-0.4,0.2-0.9,0.4-1.2c-0.3-0.4-1.1-1-2.5-1c-1.6,0-3.6,1.3-3.6,4.4c0,2.7,2.1,4.4,4.6,4.4
			c1.7,0,3.2-0.5,5-1.5l-0.3,3.1c-1.5,0.9-3,1.3-5,1.3C123.5,91.7,120.2,88.8,120.2,84.3"/>
		<path id="XMLID_33_" class="st0" d="M137.4,89.8c-0.3-0.6-0.5-1.3-0.5-2.2v-7.2h-2.7v-2.9h2.7v-3l3.5-1.5v4.5h4.3v2.9h-4.3v6.5
			c0,0.5,0.1,0.7,0.2,1c0.3,0.4,0.8,0.7,1.5,0.7c0.9,0,1.9-0.4,2.8-0.7l-0.3,3c-1,0.5-2.1,0.8-3.4,0.8
			C139.5,91.7,138.1,91.2,137.4,89.8"/>
		<path class="st0" d="M145.2,84.5c0-3.9,2.9-7.3,7.5-7.3c4.7,0,7.5,3.4,7.5,7.3c0,3.9-2.9,7.3-7.5,7.3
			C148.1,91.7,145.2,88.4,145.2,84.5 M156.6,84.5c0-2.6-1.6-4.4-3.9-4.4c-2.3,0-3.9,1.8-3.9,4.4c0,2.6,1.6,4.4,3.9,4.4
			C155,88.8,156.6,87,156.6,84.5"/>
		<path id="XMLID_30_" class="st0" d="M173.2,79.5c0,1.2-0.9,2.2-2.1,2.2c-1.1,0-1.8-0.6-2.1-1.3c-1,0.4-2.1,1.4-2.8,2.7v5.5h2.4
			v2.9h-8v-2.9h2.1v-8.2h-2.1v-3h5.5v3.2c1.2-1.9,2.7-3.4,4.5-3.4C172.4,77.2,173.2,78.2,173.2,79.5"/>
		<path class="st0" d="M174.7,88.6h2.2v-8.2h-2.2v-3h5.6v11.2h2.1v2.9h-7.7V88.6z M175.9,73c0-1.3,1.1-2.3,2.4-2.3
			c1.3,0,2.3,1,2.3,2.3c0,1.3-1.1,2.3-2.4,2.3C177,75.3,175.9,74.2,175.9,73"/>
		<path class="st0" d="M183.9,87.8c0-2.6,2.3-4.2,5.6-4.2c1.4,0,2.8,0.2,3.6,0.4v-1.1c0-0.8-0.2-1.5-0.5-1.9c-0.6-0.7-1.5-1-2.8-1
			c-0.6,0-1.1,0.1-1.4,0.2c0.1,0.2,0.1,0.5,0.1,0.7c0,1.1-0.8,1.8-1.9,1.8c-1.1,0-1.9-0.7-1.9-1.9c0-1.7,1.8-3.6,5.6-3.6
			c2.4,0,4,0.7,5,1.9c0.7,0.9,1.1,2.1,1.1,3.5v6h2.1v2.9h-5.4v-1.5c-1.1,1-2.8,1.8-4.7,1.8C186.1,91.7,183.9,90.4,183.9,87.8
			 M193.1,87.9v-2.2c-0.8-0.2-1.8-0.3-2.9-0.3c-1.7,0-2.7,0.8-2.7,2.1c0,1.1,0.8,1.7,2.1,1.7C190.9,89.2,192.1,88.7,193.1,87.9"/>
		<path class="st1" d="M91.2,56.9h2.4V42.1h-2.4v-3.3h8.6c4.6,0,8.1,2.6,8.1,7c0,4.9-3.5,7.3-8.5,7.3c-1,0-1.6,0-2.1,0v3.8h2.7v3.3
			h-8.8V56.9z M104.1,45.8c0-2.2-1.9-3.7-4.5-3.7h-2.3v7.7c0.4,0,0.9,0.1,2.4,0.1C102.5,49.9,104.1,48.3,104.1,45.8"/>
	</g>
	<polygon id="XMLID_23_" class="st1" points="108.6,57.2 110.8,57.2 110.8,41.8 108.6,41.8 108.6,38.8 114.3,38.8 114.3,57.2 
		116.4,57.2 116.4,60.2 108.6,60.2 	"/>
	<g>
		<path class="st1" d="M117.4,56.4c0-2.7,2.3-4.3,5.7-4.3c1.5,0,2.8,0.2,3.6,0.4v-1.1c0-0.8-0.2-1.5-0.6-1.9c-0.6-0.7-1.5-1-2.8-1
			c-0.6,0-1.1,0.1-1.4,0.2c0.1,0.2,0.1,0.5,0.1,0.7c0,1.1-0.8,1.8-1.9,1.8c-1.1,0-1.9-0.7-1.9-1.9c0-1.8,1.8-3.6,5.7-3.6
			c2.4,0,4.1,0.7,5.1,1.9c0.7,0.9,1.1,2.1,1.1,3.6v6.1h2.1v2.9h-5.5v-1.6c-1.1,1-2.9,1.8-4.8,1.8C119.6,60.4,117.4,59.1,117.4,56.4
			 M126.8,56.6v-2.2c-0.8-0.2-1.8-0.3-2.9-0.3c-1.7,0-2.8,0.8-2.8,2.1c0,1.1,0.8,1.8,2.1,1.8C124.5,57.9,125.7,57.4,126.8,56.6"/>
		<path id="XMLID_20_" class="st1" d="M135.1,66.6c-1.9,0-3.1-1.1-3.1-2.2c0-1.2,0.8-1.8,1.8-1.8c0.8,0,1.3,0.5,1.6,1.1
			c0.4-0.1,0.7-0.3,1.1-0.8c0.2-0.3,0.4-0.6,0.6-1.1l1.1-2.2l-5.1-10.5h-1.8v-3h7.3v2.8h-2.1l3.3,7.5l3.3-7.5H141v-2.8h7.3v3h-1.7
			L140,63c-0.3,0.6-0.7,1.2-1.1,1.7C137.8,66,136.5,66.6,135.1,66.6"/>
		<path class="st1" d="M162.9,60.2c0,1.8-0.5,3.2-1.3,4.3c-1.2,1.4-3,2.2-5.3,2.2c-2.5,0-4.6-0.8-5.6-1.8c-0.6-0.6-0.8-1.2-0.8-1.9
			c0-1,0.7-2,1.9-2c1.1,0,2,0.8,2,1.8c0,0.2,0,0.4-0.1,0.6c0.6,0.2,1.3,0.4,2.1,0.4c1.3,0,2.3-0.4,2.9-1.2c0.4-0.6,0.6-1.4,0.6-2.5
			v-2c-1.1,1.1-2.2,1.8-4.1,1.8c-3.6,0-6.5-2.8-6.5-7c0-4.1,3-7.2,6.7-7.2c1.8,0,3.1,0.7,4.1,1.5v-1.3h5.5v3h-2.1V60.2z M152.4,52.9
			c0,2.6,1.6,4,3.8,4c1.2,0,2.3-0.6,3.2-1.4v-5.6c-0.8-0.6-1.9-1.1-3.2-1.1C154,48.7,152.4,50.2,152.4,52.9"/>
		<path id="XMLID_17_" class="st1" d="M179.5,48c0,1.2-0.9,2.2-2.1,2.2c-1.1,0-1.8-0.6-2.1-1.3c-1,0.4-2.2,1.5-2.8,2.7v5.6h2.5v2.9
			h-8.1v-2.9h2.1v-8.3h-2.1v-3h5.5v3.2c1.2-1.9,2.7-3.5,4.5-3.5C178.6,45.7,179.5,46.8,179.5,48"/>
		<path class="st1" d="M179.3,53.1c0-3.9,2.9-7.4,7.6-7.4c4.7,0,7.6,3.4,7.6,7.4c0,3.9-2.9,7.4-7.6,7.4
			C182.1,60.4,179.3,57,179.3,53.1 M190.8,53.1c0-2.6-1.6-4.4-3.9-4.4c-2.3,0-3.9,1.8-3.9,4.4c0,2.6,1.6,4.4,3.9,4.4
			C189.1,57.5,190.8,55.7,190.8,53.1"/>
		<path id="XMLID_14_" class="st1" d="M197.7,58.5c-0.5-0.7-0.7-1.7-0.7-2.9v-6.7h-2.1v-3h5.7v8.9c0,0.6,0.1,1.1,0.3,1.5
			c0.3,0.6,0.9,0.9,1.8,0.9c1.2,0,2.5-0.7,3.7-1.7v-6.6H204v-3h5.8v11.3h2.1v2.9h-5.5v-2.3c-1.4,1.3-2.9,2.5-5,2.5
			C199.7,60.4,198.4,59.7,197.7,58.5"/>
		<path class="st1" d="M212.2,63.6h2.1V48.9h-2.1v-3h5.5v1.6c1.1-1,2.3-1.9,4.2-1.9c3.7,0,6.5,3,6.5,7.3c0,4.1-3,7.4-6.7,7.4
			c-1.5,0-2.8-0.6-3.9-1.4v4.5h2.3v2.9h-8V63.6z M224.8,53c0-2.7-1.6-4.3-3.6-4.3c-1.3,0-2.4,0.6-3.3,1.4v6.1c0.9,0.6,2,1.1,3.3,1.1
			C223.1,57.4,224.8,55.8,224.8,53"/>
	</g>
	<g>
		<path id="XMLID_11_" class="st1" d="M66.1,57.8c2.1-1.6,4.6-2.5,7.4-2.5c7-0.1,12.7,5.5,12.7,12.5c0.1,7-5.5,12.7-12.5,12.7
			C66.8,80.6,61.1,75,61,68c0-2.2,0.5-4.3,1.6-6.2c-3.1-2.8-2.8-6.9-2.8-6.9C61.5,57.1,64.6,57.7,66.1,57.8"/>
		<polygon id="XMLID_10_" class="st2" points="0,0 0,14 1,14 17.4,0 		"/>
		<polygon id="XMLID_9_" class="st3" points="17.4,0 1,14 10.4,14 10.4,14.3 10.4,21.5 35.6,0 		"/>
		<path id="XMLID_8_" class="st4" d="M36.8,0h-1.3L10.4,21.5v15.6L51.1,2.3C46.8,0.8,42,0,36.8,0"/>
		<path id="XMLID_7_" class="st5" d="M42.5,24.7c0-2.4,1.9-4.3,4.3-4.3c0.4,0,0.8,0.1,1.1,0.2L62.1,8.4C59,5.8,55.3,3.7,51.1,2.3
			L10.4,37.1v15.2v0.4l32.1-27.5C42.5,25,42.5,24.9,42.5,24.7"/>
		<path id="XMLID_6_" class="st6" d="M67.1,14.3c-1.4-2.2-3.1-4.1-5-5.8L47.9,20.6c1.8,0.5,3.2,2.2,3.2,4.1c0,0.5-0.1,1-0.2,1.4
			c-0.6,1.7-2.2,2.9-4,2.9c-1.9,0-3.5-1.2-4-2.9c-0.1-0.3-0.2-0.6-0.2-0.9L10.4,52.6v15.6L69.1,18C68.5,16.7,67.9,15.4,67.1,14.3"/>
		<path id="XMLID_5_" class="st7" d="M26.1,61c1.9,0.1,4.6,0.1,8.9,0.1c0.6,0,1.2,0,1.8,0l10-8.7c-0.1-0.1,0.1,0.1,0,0
			c-2.2-1.6-3.6-3.3-3.7-3.4c-1-1.2-0.8-2.9,0.3-3.8c1.1-1,2.9-0.8,3.8,0.3c0.2,0.2,1.5,1.8,4,3.3l20.3-17.4c0-0.5,0-1.1,0-1.6
			c0-1.3-0.1-2.5-0.2-3.8c-0.3-2.9-1.1-5.7-2.2-8.1L10.4,68.2v9.3H0v14h1.4l24.7-21.2V61z"/>
		<polygon id="XMLID_4_" class="st0" points="26.1,70.3 1.4,91.4 19.6,91.4 36,77.5 26.1,77.5 		"/>
		<path id="XMLID_3_" class="st0" d="M56.1,56.8c-3.9-0.9-7.1-2.7-9.4-4.3l-10,8.7C44.2,61,50.8,59.5,56.1,56.8"/>
		<path id="XMLID_2_" class="st0" d="M63.3,51.7c3.4-3.3,5.8-7.5,7.1-12.5c0.6-2.4,1-4.9,1.1-7.7L51.2,48.9
			C53.9,50.7,58.1,52.4,63.3,51.7"/>
		<polygon id="XMLID_1_" class="st8" points="37.5,91.4 37.5,78.4 37.5,77.5 36,77.5 19.6,91.4 		"/>
	</g>
</g>
</svg>
